Wind in the Willows Analysis
…
get_sentiments(lexicon = "nrc")

## # A tibble: 13,901 x 2
##    word        sentiment
##    <chr>       <chr>    
##  1 abacus      trust    
##  2 abandon     fear     
##  3 abandon     negative 
##  4 abandon     sadness  
##  5 abandoned   anger    
##  6 abandoned   fear     
##  7 abandoned   negative 
##  8 abandoned   sadness  
##  9 abandonment anger    
## 10 abandonment fear     
## #  with 13,891 more rows

get_sentiments(lexicon = "afinn")

## # A tibble: 2,477 x 2
##    word       value
##    <chr>      <dbl>
##  1 abandon       -2
##  2 abandoned     -2
##  3 abandons      -2
##  4 abducted      -2
##  5 abduction     -2
##  6 abductions    -2
##  7 abhor         -3
##  8 abhorred      -3
##  9 abhorrent     -3
## 10 abhors        -3
## #  with 2,467 more rows

afinn_pos <- get_sentiments("afinn") %>% 
  filter(value %in% c(3,4,5))

afinn_pos

## # A tibble: 222 x 2
##    word         value
##    <chr>        <dbl>
##  1 admire           3
##  2 admired          3
##  3 admires          3
##  4 admiring         3
##  5 adorable         3
##  6 adore            3
##  7 adored           3
##  8 adores           3
##  9 affection        3
## 10 affectionate     3
## #  with 212 more rows
…
